22

5 4
1
f 3 3 s
20 1

7 7
1
r 5 2 n
20 1

6 5
2
f 4 1 e
t 3 1 w
20 1

5 4
2
t 4 3 e
t 1 1 n
20 1

4 3
3
r 2 1 s
f 0 0 w
f 2 0 n
20 1

5 4
3
h 2 0 n
r 2 3 w
r 3 0 s
20 1

6 6
4
f 4 4 s
r 0 1 e
h 5 0 e
t 2 2 e
20 1

4 5
4
t 2 4 n
h 3 3 n
t 0 3 e
r 2 0 n
20 1

5 4
5
r 3 1 w
t 2 3 n
t 0 2 n
r 4 3 s
h 3 2 e
20 1

4 4
5
h 0 2 s
h 2 2 e
r 3 0 e
f 2 1 n
r 0 0 n
20 1

5 5
6
f 4 2 s
t 4 3 n
r 3 3 s
r 1 4 n
h 1 0 s
t 3 2 n
20 4

6 7
6
r 5 0 n
r 5 6 n
t 5 1 e
r 4 4 n
t 2 2 w
t 5 5 w
20 5

6 5
7
r 1 1 s
r 3 1 e
h 4 2 w
f 5 4 n
h 2 1 w
h 4 0 n
h 5 0 n
20 5

4 4
7
r 0 2 s
f 1 3 w
f 3 0 s
h 2 2 e
h 3 3 n
r 1 2 e
f 3 1 e
20 4

5 6
8
f 3 2 n
f 1 0 n
r 4 5 s
r 3 0 s
r 3 1 w
f 0 5 n
r 0 2 e
t 0 3 w
20 6

7 8
8
r 0 6 s
t 1 1 w
t 3 7 w
t 4 1 e
h 6 0 w
r 3 4 s
h 0 3 w
r 2 6 w
20 5

7 7
9
h 0 1 s
h 3 6 n
f 1 1 s
r 6 2 s
r 2 4 e
r 5 0 e
t 4 0 s
r 1 2 s
h 2 0 s
20 4

4 4
9
h 0 0 w
t 2 0 s
t 3 1 s
f 0 2 w
f 3 0 e
r 2 3 e
r 1 1 w
f 0 1 w
r 2 2 s
20 5

6 7
10
t 0 2 s
r 4 2 w
h 2 3 n
t 2 5 n
r 3 0 w
h 2 4 n
r 1 4 n
r 3 1 n
f 3 5 n
t 0 6 e
20 4

6 7
10
t 5 0 e
r 3 1 n
r 2 3 n
h 5 1 s
r 1 6 n
t 2 6 e
h 0 0 s
t 4 1 n
h 2 0 s
h 3 0 e
20 6

6 5
11
t 0 4 n
f 4 1 w
r 2 3 w
t 5 4 s
f 1 2 e
t 2 1 n
h 3 4 w
f 1 4 e
t 3 0 n
t 0 2 n
t 1 3 e
20 6

4 3
11
f 2 0 n
f 2 1 w
f 0 0 w
t 3 0 s
t 3 2 e
t 1 0 w
t 1 1 e
f 1 2 s
h 0 2 n
t 3 1 e
r 2 2 w
20 5
