20

11 20
11
h 7 4 e
r 3 12 n
f 6 6 s
f 5 8 n
f 2 9 w
t 8 10 e
r 8 14 e
r 4 14 n
r 1 18 n
t 7 13 n
r 2 2 n
17 25

12 10
10
f 10 9 e
h 9 1 s
h 10 8 w
f 9 2 e
t 5 7 e
t 9 5 s
f 2 2 s
f 5 3 n
f 11 1 e
f 5 8 n
5 47

6 15
15
f 3 14 n
r 3 1 w
r 4 13 e
t 2 3 s
f 5 2 w
r 1 14 s
f 1 7 n
h 5 8 w
r 2 7 w
t 3 7 s
f 1 13 e
r 1 10 n
h 2 14 s
t 2 9 e
f 5 1 e
15 7

14 14
13
f 8 12 n
t 8 1 n
t 10 13 n
f 8 13 s
t 4 5 e
h 13 11 w
r 1 11 e
f 2 4 n
r 13 6 s
t 7 9 e
t 4 9 s
r 5 1 e
r 2 1 n
9 20

10 12
6
f 9 6 s
h 3 3 s
t 8 11 e
t 6 2 n
f 1 9 n
r 8 3 e
1 44

9 15
7
t 5 5 e
t 3 5 w
f 8 12 e
r 2 13 e
t 5 13 e
f 7 11 n
t 6 13 w
4 26

15 7
15
t 4 5 w
h 10 3 n
t 4 6 e
f 9 6 w
r 12 3 n
h 12 1 e
r 7 1 w
r 2 5 w
r 7 5 w
t 12 4 e
h 1 5 s
f 5 6 n
r 12 6 e
f 8 4 n
r 10 4 e
9 3

6 18
7
t 1 8 s
f 5 8 w
t 3 11 n
t 4 6 e
h 4 12 e
h 5 14 s
t 5 3 n
11 41

14 15
9
r 1 6 s
r 3 11 w
r 4 3 n
t 12 3 w
f 13 9 w
t 13 1 s
t 3 7 w
f 7 5 w
r 5 8 n
14 12

8 5
10
f 2 3 w
r 2 1 n
r 1 2 s
r 4 4 n
t 5 3 s
t 5 4 s
r 3 3 s
t 4 4 w
t 7 4 n
r 1 4 n
8 10

19 10
5
h 5 9 e
r 10 3 n
h 17 1 w
f 9 3 e
f 8 5 s
5 5

15 8
9
t 7 6 s
r 10 2 n
t 5 1 e
h 11 7 n
t 6 4 e
r 7 7 s
t 9 7 w
r 7 6 s
h 8 2 w
12 26

19 10
6
h 17 5 w
f 2 5 n
r 5 8 e
r 12 4 w
h 15 4 w
h 13 5 e
2 24

15 16
15
h 7 7 e
f 12 7 w
f 9 15 s
r 8 2 w
f 2 11 s
t 3 11 n
h 12 5 s
t 8 11 n
t 7 4 n
r 9 14 n
h 13 11 s
r 3 7 s
r 9 5 w
f 14 6 s
h 6 6 s
1 37

6 7
8
t 4 3 w
t 4 5 e
f 4 6 n
t 3 3 e
f 3 2 s
f 4 4 w
r 2 3 w
t 2 4 n
17 11

9 16
10
h 5 7 w
h 6 12 s
h 4 10 e
r 2 6 n
h 7 5 n
f 2 15 w
h 2 3 n
r 5 3 w
h 8 5 e
h 8 9 s
15 47

7 5
14
h 2 1 s
h 5 4 s
t 6 2 e
r 6 4 n
r 2 2 s
f 2 1 w
f 4 3 n
r 3 3 w
r 5 1 n
f 6 3 n
r 2 1 e
t 4 1 n
r 2 1 w
r 2 2 n
10 17

9 5
8
h 6 4 s
h 6 2 n
t 7 2 n
t 2 1 n
h 5 4 w
f 5 1 w
f 7 3 w
f 3 3 n
7 9

18 11
10
r 3 9 e
t 10 5 n
t 15 6 w
t 6 4 n
t 9 2 n
t 5 5 w
h 12 10 s
h 6 7 w
t 11 7 s
h 15 3 e
4 27

7 18
6
h 3 13 e
f 1 8 s
f 6 15 n
h 2 4 e
r 1 12 s
t 2 5 w
10 35
